{
  "Users": [
    {
      "_id": "568c2f35ad4d53f4059ca3b3",
      "index": 0,
      "guid": "d5e2af3e-2975-467c-997a-38fd6bdbde13",
      "pin": 9829,
      "cached_acct_balance": 0,
      "age": 30,
      "name": "Shannon Langley",
      "gender": "female",
      "email": "shannonlangley@boilcat.com",
      "phone": "+1 (842) 433-3935",
      "address": "502 Miller Avenue, Gilmore, Colorado, 10979",
      "date_registered": "2014-07-26T03:21:44 +07:00",
      "acct_bal_hist": [{
        "date": "2014-04-03T04:33:44 +07:00",
        "value": "1,354.30",
        "type": "-",
        "_id": "568c2f35c4378ecae2bb22e4"
      }, {
        "date": "2015-01-19T04:11:37 +08:00",
        "value": "2,308.21",
        "type": "+",
        "_id": "568c2f35a39a511997fb899a"
      }, {
        "date": "2015-05-30T09:50:19 +07:00",
        "value": "3,600.97",
        "type": "-",
        "_id": "568c2f358f9f495927f9802d"
      }, {
        "date": "2015-03-10T06:09:02 +07:00",
        "value": 494.54,
        "type": "+",
        "_id": "568c2f35fcf0b5cb8491f514"
      }, {
        "date": "2015-11-25T09:52:13 +08:00",
        "value": "2,038.69",
        "type": "+",
        "_id": "568c2f35f1eb9e4da9508aa3"
      }, {
        "date": "2015-01-21T11:08:37 +08:00",
        "value": "2,711.17",
        "type": "+",
        "_id": "568c2f354176037dab845719"
      }, {
        "date": "2014-02-17T08:04:51 +08:00",
        "value": "3,937.27",
        "type": "-",
        "_id": "568c2f35ee459ebc969fc22a"
      }, {
        "date": "2014-04-02T09:22:54 +07:00",
        "value": "1,516.65",
        "type": "+",
        "_id": "568c2f35bfe221e97b4b56d1"
      }, {
        "date": "2014-11-04T11:19:46 +08:00",
        "value": "1,539.03",
        "type": "+",
        "_id": "568c2f35984ef58978b6d9b4"
      }]
    }, {
      "_id": "568c2f351ed95496a72661d0",
      "index": 1,
      "guid": "fa264afa-bab9-4176-aec1-a3b0934a912c",
      "pin": 8976,
      "cached_acct_balance": 0,
      "age": 29,
      "name": "Rodgers Galloway",
      "gender": "male",
      "email": "rodgersgalloway@boilcat.com",
      "phone": "+1 (800) 451-2448",
      "address": "100 Canal Avenue, Allendale, Rhode Island, 33637",
      "date_registered": "2014-08-06T12:07:35 +07:00",
      "acct_bal_hist": [{
        "date": "2015-01-29T07:37:25 +08:00",
        "value": "1,338.11",
        "type": "+",
        "_id": "568c2f357c3de5fef82e0382"
      }, {
        "date": "2015-10-31T10:15:38 +07:00",
        "value": 117.67,
        "type": "+",
        "_id": "568c2f355bfba944209585f9"
      }, {
        "date": "2014-12-10T01:16:46 +08:00",
        "value": "2,572.36",
        "type": "+",
        "_id": "568c2f350a23388d00955527"
      }, {
        "date": "2015-10-25T03:25:19 +07:00",
        "value": 608.53,
        "type": "+",
        "_id": "568c2f355bc1988d4bf4e3e5"
      }, {
        "date": "2014-01-29T04:53:27 +08:00",
        "value": "1,591.82",
        "type": "+",
        "_id": "568c2f359bae972b9e73512f"
      }, {
        "date": "2014-02-05T04:29:30 +08:00",
        "value": "3,438.81",
        "type": "-",
        "_id": "568c2f359465907d2e6c877e"
      }, {
        "date": "2014-01-17T08:12:21 +08:00",
        "value": "1,920.30",
        "type": "+",
        "_id": "568c2f3572a3707e71600a0f"
      }, {
        "date": "2014-08-23T06:07:14 +07:00",
        "value": "1,890.84",
        "type": "+",
        "_id": "568c2f352dabb60dfee43dde"
      }, {
        "date": "2014-05-21T09:19:41 +07:00",
        "value": "3,925.86",
        "type": "-",
        "_id": "568c2f3540ec23f004aabfc3"
      }]
    }, {
      "_id": "568c2f35f8b45288992c1433",
      "index": 2,
      "guid": "07cbc1c9-f76c-4f1f-919a-e4334777f0cc",
      "pin": 1081,
      "cached_acct_balance": 0,
      "age": 22,
      "name": "Diaz Murray",
      "gender": "male",
      "email": "diazmurray@boilcat.com",
      "phone": "+1 (808) 479-3504",
      "address": "794 College Place, Why, Georgia, 97263",
      "date_registered": "2015-10-28T02:38:57 +07:00",
      "acct_bal_hist": [{
        "date": "2015-07-18T10:39:28 +07:00",
        "value": "1,661.67",
        "type": "+",
        "_id": "568c2f3516b0630c63613c9a"
      }, {
        "date": "2015-02-14T07:13:43 +08:00",
        "value": "2,370.13",
        "type": "-",
        "_id": "568c2f35b8f569bc02709d2d"
      }, {
        "date": "2015-10-04T10:25:58 +07:00",
        "value": "2,976.27",
        "type": "+",
        "_id": "568c2f35047019dc6f6de719"
      }]
    }, {
      "_id": "568c2f351da1b839e22e56ff",
      "index": 3,
      "guid": "fa525727-93cc-44f9-b2b7-cd06a109d134",
      "pin": 3160,
      "cached_acct_balance": 0,
      "age": 22,
      "name": "Bridges Berg",
      "gender": "male",
      "email": "bridgesberg@boilcat.com",
      "phone": "+1 (932) 458-2625",
      "address": "600 Hastings Street, Flintville, Oregon, 65189",
      "date_registered": "2014-06-25T03:22:52 +07:00",
      "acct_bal_hist": [{
        "date": "2016-01-02T04:53:02 +08:00",
        "value": 516.38,
        "type": "-",
        "_id": "568c2f3539f70620123fb396"
      }, {
        "date": "2014-09-23T06:29:13 +07:00",
        "value": "2,238.23",
        "type": "-",
        "_id": "568c2f3538c8bc1691c9717b"
      }]
    }, {
      "_id": "568c2f35177775965ef3f11f",
      "index": 4,
      "guid": "d91200e5-ffb0-4cd1-96ac-3643b355639b",
      "pin": 5387,
      "cached_acct_balance": 0,
      "age": 25,
      "name": "Elisabeth Wright",
      "gender": "female",
      "email": "elisabethwright@boilcat.com",
      "phone": "+1 (939) 591-2786",
      "address": "438 Willoughby Avenue, Fostoria, Marshall Islands, 42656",
      "date_registered": "2014-03-05T02:31:27 +08:00",
      "acct_bal_hist": [{
        "date": "2016-01-01T08:20:23 +08:00",
        "value": "3,329.20",
        "type": "-",
        "_id": "568c2f354c6804ecf5ebd9a1"
      }, {
        "date": "2015-09-29T11:04:35 +07:00",
        "value": "1,528.00",
        "type": "-",
        "_id": "568c2f35ea48d11533ccb757"
      }]
    }, {
      "_id": "568c2f35c8defa95d89d2777",
      "index": 5,
      "guid": "9025d278-d234-4338-b5b5-1ae0f904ada9",
      "pin": 9344,
      "cached_acct_balance": 0,
      "age": 35,
      "name": "Moreno Higgins",
      "gender": "male",
      "email": "morenohiggins@boilcat.com",
      "phone": "+1 (855) 489-2742",
      "address": "948 Crystal Street, Kidder, New Mexico, 20841",
      "date_registered": "2014-01-19T07:37:17 +08:00",
      "acct_bal_hist": [{
        "date": "2015-02-15T12:06:06 +08:00",
        "value": "1,120.03",
        "type": "+",
        "_id": "568c2f353f8bba2e596f4277"
      }, {
        "date": "2014-08-08T04:19:06 +07:00",
        "value": "1,233.79",
        "type": "+",
        "_id": "568c2f35033f03e3c4390ce1"
      }, {
        "date": "2014-04-28T06:22:38 +07:00",
        "value": "2,293.23",
        "type": "-",
        "_id": "568c2f3522ab3a6a38d24f0b"
      }, {
        "date": "2014-12-06T09:52:31 +08:00",
        "value": "1,424.49",
        "type": "+",
        "_id": "568c2f35770c5c053824fd2c"
      }, {
        "date": "2014-04-12T09:42:27 +07:00",
        "value": 371.93,
        "type": "+",
        "_id": "568c2f356661c5eb45927f0d"
      }, {
        "date": "2015-09-26T04:29:36 +07:00",
        "value": "1,056.56",
        "type": "+",
        "_id": "568c2f353d3d7a1339d1c529"
      }, {
        "date": "2015-02-04T01:26:01 +08:00",
        "value": "1,545.96",
        "type": "-",
        "_id": "568c2f35489e3d33c0ee133c"
      }]
    }, {
      "_id": "568c2f3593402467210e7562",
      "index": 6,
      "guid": "b303cd1f-08a2-4aa1-b9bc-8b4a9e8668e0",
      "pin": 3909,
      "cached_acct_balance": 0,
      "age": 21,
      "name": "Evans Collins",
      "gender": "male",
      "email": "evanscollins@boilcat.com",
      "phone": "+1 (871) 478-3549",
      "address": "590 Harkness Avenue, Dowling, North Carolina, 66332",
      "date_registered": "2014-04-07T05:26:11 +07:00",
      "acct_bal_hist": [{
        "date": "2014-04-30T08:10:26 +07:00",
        "value": 592.73,
        "type": "-",
        "_id": "568c2f3519adf37e4d93c7db"
      }, {
        "date": "2014-06-20T06:58:56 +07:00",
        "value": "1,282.76",
        "type": "-",
        "_id": "568c2f35491bc1e5ab2dc259"
      }, {
        "date": "2015-10-09T08:57:10 +07:00",
        "value": 405.62,
        "type": "-",
        "_id": "568c2f356818dea83da09d43"
      }, {
        "date": "2015-12-16T07:43:54 +08:00",
        "value": "3,444.39",
        "type": "+",
        "_id": "568c2f351046cfb4a5d0fb56"
      }]
    }, {
      "_id": "568c2f35a39d6185aedddb2e",
      "index": 7,
      "guid": "73da2f8a-d9f2-4440-97da-039c1f59778a",
      "pin": 3098,
      "cached_acct_balance": 0,
      "age": 27,
      "name": "Renee Green",
      "gender": "female",
      "email": "reneegreen@boilcat.com",
      "phone": "+1 (810) 405-3765",
      "address": "514 Crown Street, Weogufka, Federated States Of Micronesia, 79404",
      "date_registered": "2015-11-20T04:04:21 +08:00",
      "acct_bal_hist": [{
        "date": "2015-12-12T10:40:38 +08:00",
        "value": "2,602.23",
        "type": "+",
        "_id": "568c2f356522d94cdd0da7ed"
      }, {
        "date": "2015-07-10T06:04:22 +07:00",
        "value": "1,938.22",
        "type": "+",
        "_id": "568c2f35af3c3caec56e199e"
      }, {
        "date": "2015-12-13T11:19:41 +08:00",
        "value": "3,156.65",
        "type": "-",
        "_id": "568c2f35395a3837664ac3eb"
      }]
    }, {
      "_id": "568c2f350e7dc30b805e035d",
      "index": 8,
      "guid": "4cd7cc11-741e-4865-a3ea-2879ee0b6bfa",
      "pin": 7499,
      "cached_acct_balance": 0,
      "age": 31,
      "name": "Isabelle Fuller",
      "gender": "female",
      "email": "isabellefuller@boilcat.com",
      "phone": "+1 (812) 438-2509",
      "address": "402 Vermont Street, Cannondale, Vermont, 81632",
      "date_registered": "2014-11-02T06:47:27 +08:00",
      "acct_bal_hist": [{
        "date": "2015-03-27T02:06:25 +07:00",
        "value": "3,649.46",
        "type": "-",
        "_id": "568c2f35ddbedcdad2700081"
      }, {
        "date": "2015-12-18T06:21:15 +08:00",
        "value": "1,273.81",
        "type": "-",
        "_id": "568c2f355c1e4aa616449f6a"
      }, {
        "date": "2015-06-29T08:23:47 +07:00",
        "value": "2,945.83",
        "type": "+",
        "_id": "568c2f35f2c5f2725150009d"
      }, {
        "date": "2015-06-27T07:06:10 +07:00",
        "value": "1,815.97",
        "type": "-",
        "_id": "568c2f3502e1a2114ddec441"
      }, {
        "date": "2014-06-02T05:06:31 +07:00",
        "value": "1,520.84",
        "type": "+",
        "_id": "568c2f354870f3e0b8186462"
      }, {
        "date": "2015-04-12T05:18:01 +07:00",
        "value": "2,665.82",
        "type": "-",
        "_id": "568c2f35bb16be1558e31bf7"
      }, {
        "date": "2014-10-25T07:07:38 +07:00",
        "value": "1,889.41",
        "type": "+",
        "_id": "568c2f35a4071152f0964320"
      }]
    }, {
      "_id": "568c2f3506a2ccac8e05c6b4",
      "index": 9,
      "guid": "cbeaffb8-e331-4b81-abb7-5b41c0883b2e",
      "pin": 6870,
      "cached_acct_balance": 0,
      "age": 22,
      "name": "Sofia Fernandez",
      "gender": "female",
      "email": "sofiafernandez@boilcat.com",
      "phone": "+1 (967) 406-2035",
      "address": "385 Empire Boulevard, Washington, New York, 11777",
      "date_registered": "2014-03-06T06:22:19 +08:00",
      "acct_bal_hist": [{
        "date": "2014-06-24T10:51:07 +07:00",
        "value": "1,009.34",
        "type": "+",
        "_id": "568c2f35dc0eab4454296eb2"
      }, {
        "date": "2015-08-27T06:36:02 +07:00",
        "value": 675.45,
        "type": "+",
        "_id": "568c2f35ca95329bf1be90ae"
      }, {
        "date": "2015-10-09T02:11:57 +07:00",
        "value": "3,735.35",
        "type": "-",
        "_id": "568c2f350f8981f3e4cfff65"
      }, {
        "date": "2014-07-08T09:48:06 +07:00",
        "value": "2,794.67",
        "type": "+",
        "_id": "568c2f35476d036ebfbf49fe"
      }]
    }]
}